^C:\USERS\MAGSHIMIM\DESKTOP\NEW FOLDER\DEBUGWORKSHOP\SHAPES\SHAPE.CPP|C:\USERS\MAGSHIMIM\DESKTOP\NEW FOLDER\DEBUGWORKSHOP\SHAPES\SHAPES.CPP|C:\USERS\MAGSHIMIM\DESKTOP\NEW FOLDER\DEBUGWORKSHOP\SHAPES\TRIANGLE.CPP
C:\USERS\MAGSHIMIM\DESKTOP\NEW FOLDER\DEBUGWORKSHOP\SHAPES\DEBUG\VC142.PDB
C:\USERS\MAGSHIMIM\DESKTOP\NEW FOLDER\DEBUGWORKSHOP\SHAPES\DEBUG\VC142.IDB
C:\USERS\MAGSHIMIM\DESKTOP\NEW FOLDER\DEBUGWORKSHOP\SHAPES\DEBUG\TRIANGLE.OBJ
C:\USERS\MAGSHIMIM\DESKTOP\NEW FOLDER\DEBUGWORKSHOP\SHAPES\DEBUG\SHAPE.OBJ
C:\USERS\MAGSHIMIM\DESKTOP\NEW FOLDER\DEBUGWORKSHOP\SHAPES\DEBUG\SHAPES.OBJ
^C:\USERS\MAGSHIMIM\DESKTOP\NEW FOLDER\DEBUGWORKSHOP\SHAPES\SHAPES.CPP
C:\USERS\MAGSHIMIM\DESKTOP\NEW FOLDER\DEBUGWORKSHOP\SHAPES\DEBUG\VC142.PDB
^C:\USERS\MAGSHIMIM\DESKTOP\NEW FOLDER\DEBUGWORKSHOP\SHAPES\SHAPE.CPP
C:\USERS\MAGSHIMIM\DESKTOP\NEW FOLDER\DEBUGWORKSHOP\SHAPES\DEBUG\VC142.PDB
^C:\USERS\MAGSHIMIM\DESKTOP\NEW FOLDER\DEBUGWORKSHOP\SHAPES\TRIANGLE.CPP
C:\USERS\MAGSHIMIM\DESKTOP\NEW FOLDER\DEBUGWORKSHOP\SHAPES\DEBUG\VC142.PDB
