^C:\USERS\MAGSHIMIM\DESKTOP\NEW FOLDER\DEBUGWORKSHOP\PASSWORD\DEBUG\PASSWORD.OBJ
C:\USERS\MAGSHIMIM\DESKTOP\NEW FOLDER\DEBUGWORKSHOP\DEBUG\PASSWORD.EXE
C:\USERS\MAGSHIMIM\DESKTOP\NEW FOLDER\DEBUGWORKSHOP\PASSWORD\DEBUG\PASSWORD.ILK
C:\USERS\MAGSHIMIM\DESKTOP\NEW FOLDER\DEBUGWORKSHOP\DEBUG\PASSWORD.PDB
